{
  "tracks": {
    "href": "https://api.spotify.com/v1/search?query=Take+on+Me&type=track&offset=0&limit=3",
    "items": [
      {
        "album": {
          "album_type": "album",
          "artists": [
            {
              "external_urls": {
                "spotify": "https://open.spotify.com/artist/2jzc5TC5TVFLXQlBNiIUzE"
              },
              "href": "https://api.spotify.com/v1/artists/2jzc5TC5TVFLXQlBNiIUzE",
              "id": "2jzc5TC5TVFLXQlBNiIUzE",
              "name": "a-ha",
              "type": "artist",
              "uri": "spotify:artist:2jzc5TC5TVFLXQlBNiIUzE"
            }
          ],
          "available_markets": [
            "AD",
            "AE",
            "AR",
            "AT",
            "AU",
            "BE",
            "BG",
            "BH",
            "BO",
            "BR",
            "CA",
            "CH",
            "CL",
            "CO",
            "CR",
            "CY",
            "CZ",
            "DE",
            "DK",
            "DO",
            "DZ",
            "EC",
            "EE",
            "EG",
            "ES",
            "FI",
            "FR",
            "GB",
            "GR",
            "GT",
            "HK",
            "HN",
            "HU",
            "ID",
            "IE",
            "IL",
            "IS",
            "IT",
            "JO",
            "JP",
            "KW",
            "LB",
            "LI",
            "LT",
            "LU",
            "LV",
            "MA",
            "MC",
            "MT",
            "MX",
            "MY",
            "NI",
            "NL",
            "NO",
            "NZ",
            "OM",
            "PA",
            "PE",
            "PH",
            "PL",
            "PS",
            "PT",
            "PY",
            "QA",
            "RO",
            "SA",
            "SE",
            "SG",
            "SK",
            "SV",
            "TH",
            "TN",
            "TR",
            "TW",
            "US",
            "UY",
            "VN",
            "ZA"
          ],
          "external_urls": {
            "spotify": "https://open.spotify.com/album/1ER3B6zev5JEAaqhnyyfbf"
          },
          "href": "https://api.spotify.com/v1/albums/1ER3B6zev5JEAaqhnyyfbf",
          "id": "1ER3B6zev5JEAaqhnyyfbf",
          "images": [
            {
              "height": 640,
              "url": "https://i.scdn.co/image/c41ae5b513a39d1c616c4c279ebe19981a3092f3",
              "width": 640
            },
            {
              "height": 300,
              "url": "https://i.scdn.co/image/29524c6b4c9c821d7b57702ba05f380ac49144af",
              "width": 300
            },
            {
              "height": 64,
              "url": "https://i.scdn.co/image/38c04d9df82e1172f096511d5af3fedc1c053948",
              "width": 64
            }
          ],
          "name": "Hunting High And Low",
          "release_date": "1985-06-01",
          "release_date_precision": "day",
          "total_tracks": 10,
          "type": "album",
          "uri": "spotify:album:1ER3B6zev5JEAaqhnyyfbf"
        },
        "artists": [
          {
            "external_urls": {
              "spotify": "https://open.spotify.com/artist/2jzc5TC5TVFLXQlBNiIUzE"
            },
            "href": "https://api.spotify.com/v1/artists/2jzc5TC5TVFLXQlBNiIUzE",
            "id": "2jzc5TC5TVFLXQlBNiIUzE",
            "name": "a-ha",
            "type": "artist",
            "uri": "spotify:artist:2jzc5TC5TVFLXQlBNiIUzE"
          }
        ],
        "available_markets": [
          "AD",
          "AE",
          "AR",
          "AT",
          "AU",
          "BE",
          "BG",
          "BH",
          "BO",
          "BR",
          "CA",
          "CH",
          "CL",
          "CO",
          "CR",
          "CY",
          "CZ",
          "DE",
          "DK",
          "DO",
          "DZ",
          "EC",
          "EE",
          "EG",
          "ES",
          "FI",
          "FR",
          "GB",
          "GR",
          "GT",
          "HK",
          "HN",
          "HU",
          "ID",
          "IE",
          "IL",
          "IS",
          "IT",
          "JO",
          "JP",
          "KW",
          "LB",
          "LI",
          "LT",
          "LU",
          "LV",
          "MA",
          "MC",
          "MT",
          "MX",
          "MY",
          "NI",
          "NL",
          "NO",
          "NZ",
          "OM",
          "PA",
          "PE",
          "PH",
          "PL",
          "PS",
          "PT",
          "PY",
          "QA",
          "RO",
          "SA",
          "SE",
          "SG",
          "SK",
          "SV",
          "TH",
          "TN",
          "TR",
          "TW",
          "US",
          "UY",
          "VN",
          "ZA"
        ],
        "disc_number": 1,
        "duration_ms": 225280,
        "explicit": false,
        "external_ids": {
          "isrc": "USWB19901214"
        },
        "external_urls": {
          "spotify": "https://open.spotify.com/track/2WfaOiMkCvy7F5fcp2zZ8L"
        },
        "href": "https://api.spotify.com/v1/tracks/2WfaOiMkCvy7F5fcp2zZ8L",
        "id": "2WfaOiMkCvy7F5fcp2zZ8L",
        "is_local": false,
        "name": "Take on Me",
        "popularity": 84,
        "preview_url": "https://p.scdn.co/mp3-preview/0f980d0fac59f77123d0272b78bce97f1374d9e9?cid=40b1cfb1bee141b7bbfb5be2b4418fec",
        "track_number": 1,
        "type": "track",
        "uri": "spotify:track:2WfaOiMkCvy7F5fcp2zZ8L"
      },
      {
        "album": {
          "album_type": "album",
          "artists": [
            {
              "external_urls": {
                "spotify": "https://open.spotify.com/artist/0LcJLqbBmaGUft1e9Mm8HV"
              },
              "href": "https://api.spotify.com/v1/artists/0LcJLqbBmaGUft1e9Mm8HV",
              "id": "0LcJLqbBmaGUft1e9Mm8HV",
              "name": "ABBA",
              "type": "artist",
              "uri": "spotify:artist:0LcJLqbBmaGUft1e9Mm8HV"
            }
          ],
          "available_markets": [
            "CA",
            "MX",
            "US"
          ],
          "external_urls": {
            "spotify": "https://open.spotify.com/album/5GwbPSgiTECzQiE6u7s0ZN"
          },
          "href": "https://api.spotify.com/v1/albums/5GwbPSgiTECzQiE6u7s0ZN",
          "id": "5GwbPSgiTECzQiE6u7s0ZN",
          "images": [
            {
              "height": 575,
              "url": "https://i.scdn.co/image/cb818993d01447fdb9319db94c9976c59885f828",
              "width": 640
            },
            {
              "height": 270,
              "url": "https://i.scdn.co/image/f53c3cc7228a5ac768371fa8f35db6891b7aa7ff",
              "width": 300
            },
            {
              "height": 58,
              "url": "https://i.scdn.co/image/2ab03cbc259d1c70cfe5120148937b38bd0505a3",
              "width": 64
            }
          ],
          "name": "The Album",
          "release_date": "1977",
          "release_date_precision": "year",
          "total_tracks": 10,
          "type": "album",
          "uri": "spotify:album:5GwbPSgiTECzQiE6u7s0ZN"
        },
        "artists": [
          {
            "external_urls": {
              "spotify": "https://open.spotify.com/artist/0LcJLqbBmaGUft1e9Mm8HV"
            },
            "href": "https://api.spotify.com/v1/artists/0LcJLqbBmaGUft1e9Mm8HV",
            "id": "0LcJLqbBmaGUft1e9Mm8HV",
            "name": "ABBA",
            "type": "artist",
            "uri": "spotify:artist:0LcJLqbBmaGUft1e9Mm8HV"
          }
        ],
        "available_markets": [
          "CA",
          "MX",
          "US"
        ],
        "disc_number": 1,
        "duration_ms": 243933,
        "explicit": false,
        "external_ids": {
          "isrc": "SEAYD7702020"
        },
        "external_urls": {
          "spotify": "https://open.spotify.com/track/6vQN2a9QSgWcm74KEZYfDL"
        },
        "href": "https://api.spotify.com/v1/tracks/6vQN2a9QSgWcm74KEZYfDL",
        "id": "6vQN2a9QSgWcm74KEZYfDL",
        "is_local": false,
        "name": "Take A Chance On Me",
        "popularity": 65,
        "preview_url": null,
        "track_number": 2,
        "type": "track",
        "uri": "spotify:track:6vQN2a9QSgWcm74KEZYfDL"
      },
      {
        "album": {
          "album_type": "album",
          "artists": [
            {
              "external_urls": {
                "spotify": "https://open.spotify.com/artist/3jOstUTkEu2JkjvRdBA5Gu"
              },
              "href": "https://api.spotify.com/v1/artists/3jOstUTkEu2JkjvRdBA5Gu",
              "id": "3jOstUTkEu2JkjvRdBA5Gu",
              "name": "Weezer",
              "type": "artist",
              "uri": "spotify:artist:3jOstUTkEu2JkjvRdBA5Gu"
            }
          ],
          "available_markets": [
            "AD",
            "AE",
            "AR",
            "AT",
            "AU",
            "BE",
            "BG",
            "BH",
            "BO",
            "BR",
            "CA",
            "CH",
            "CL",
            "CO",
            "CR",
            "CY",
            "CZ",
            "DE",
            "DK",
            "DO",
            "DZ",
            "EC",
            "EE",
            "EG",
            "ES",
            "FI",
            "FR",
            "GB",
            "GR",
            "GT",
            "HK",
            "HN",
            "HU",
            "ID",
            "IE",
            "IL",
            "IS",
            "IT",
            "JO",
            "JP",
            "KW",
            "LB",
            "LI",
            "LT",
            "LU",
            "LV",
            "MA",
            "MC",
            "MT",
            "MX",
            "MY",
            "NI",
            "NL",
            "NO",
            "NZ",
            "OM",
            "PA",
            "PE",
            "PH",
            "PL",
            "PS",
            "PT",
            "PY",
            "QA",
            "RO",
            "SA",
            "SE",
            "SG",
            "SK",
            "SV",
            "TH",
            "TN",
            "TR",
            "TW",
            "US",
            "UY",
            "VN",
            "ZA"
          ],
          "external_urls": {
            "spotify": "https://open.spotify.com/album/65sHj9PvsbyD0uugGHjueN"
          },
          "href": "https://api.spotify.com/v1/albums/65sHj9PvsbyD0uugGHjueN",
          "id": "65sHj9PvsbyD0uugGHjueN",
          "images": [
            {
              "height": 640,
              "url": "https://i.scdn.co/image/f2ee8c0215d3793015704885a644cbe8c5e07862",
              "width": 640
            },
            {
              "height": 300,
              "url": "https://i.scdn.co/image/092a68a8cc0f29fd39091846413b151dbf71ebaa",
              "width": 300
            },
            {
              "height": 64,
              "url": "https://i.scdn.co/image/c68ab80b931952b6058043ac3964a0a6ee464325",
              "width": 64
            }
          ],
          "name": "Weezer (Teal Album)",
          "release_date": "2019-01-24",
          "release_date_precision": "day",
          "total_tracks": 10,
          "type": "album",
          "uri": "spotify:album:65sHj9PvsbyD0uugGHjueN"
        },
        "artists": [
          {
            "external_urls": {
              "spotify": "https://open.spotify.com/artist/3jOstUTkEu2JkjvRdBA5Gu"
            },
            "href": "https://api.spotify.com/v1/artists/3jOstUTkEu2JkjvRdBA5Gu",
            "id": "3jOstUTkEu2JkjvRdBA5Gu",
            "name": "Weezer",
            "type": "artist",
            "uri": "spotify:artist:3jOstUTkEu2JkjvRdBA5Gu"
          }
        ],
        "available_markets": [
          "AD",
          "AE",
          "AR",
          "AT",
          "AU",
          "BE",
          "BG",
          "BH",
          "BO",
          "BR",
          "CA",
          "CH",
          "CL",
          "CO",
          "CR",
          "CY",
          "CZ",
          "DE",
          "DK",
          "DO",
          "DZ",
          "EC",
          "EE",
          "EG",
          "ES",
          "FI",
          "FR",
          "GB",
          "GR",
          "GT",
          "HK",
          "HN",
          "HU",
          "ID",
          "IE",
          "IL",
          "IS",
          "IT",
          "JO",
          "JP",
          "KW",
          "LB",
          "LI",
          "LT",
          "LU",
          "LV",
          "MA",
          "MC",
          "MT",
          "MX",
          "MY",
          "NI",
          "NL",
          "NO",
          "NZ",
          "OM",
          "PA",
          "PE",
          "PH",
          "PL",
          "PS",
          "PT",
          "PY",
          "QA",
          "RO",
          "SA",
          "SE",
          "SG",
          "SK",
          "SV",
          "TH",
          "TN",
          "TR",
          "TW",
          "US",
          "UY",
          "VN",
          "ZA"
        ],
        "disc_number": 1,
        "duration_ms": 223560,
        "explicit": false,
        "external_ids": {
          "isrc": "USAT21900609"
        },
        "external_urls": {
          "spotify": "https://open.spotify.com/track/1ZB2qWsheGabSEYvBYxjKn"
        },
        "href": "https://api.spotify.com/v1/tracks/1ZB2qWsheGabSEYvBYxjKn",
        "id": "1ZB2qWsheGabSEYvBYxjKn",
        "is_local": false,
        "name": "Take On Me",
        "popularity": 66,
        "preview_url": "https://p.scdn.co/mp3-preview/80619d72824409cc5c381edd1f514f3bb8e65a76?cid=40b1cfb1bee141b7bbfb5be2b4418fec",
        "track_number": 4,
        "type": "track",
        "uri": "spotify:track:1ZB2qWsheGabSEYvBYxjKn"
      }
    ],
    "limit": 3,
    "next": "https://api.spotify.com/v1/search?query=Take+on+Me&type=track&offset=3&limit=3",
    "offset": 0,
    "previous": null,
    "total": 4837
  }
}